PWD /home/igor/Documentos/latex
INPUT /etc/texmf/web2c/texmf.cnf
INPUT /usr/share/texmf/web2c/texmf.cnf
INPUT /usr/share/texlive/texmf-dist/web2c/texmf.cnf
INPUT /var/lib/texmf/web2c/pdftex/pdflatex.fmt
INPUT trabalho.tex
OUTPUT trabalho.log
INPUT /usr/share/texlive/texmf-dist/tex/latex/base/article.cls
INPUT /usr/share/texlive/texmf-dist/tex/latex/base/article.cls
INPUT /usr/share/texlive/texmf-dist/tex/latex/base/size12.clo
INPUT /usr/share/texlive/texmf-dist/tex/latex/base/size12.clo
INPUT /usr/share/texlive/texmf-dist/fonts/map/fontname/texfonts.map
INPUT /usr/share/texlive/texmf-dist/fonts/tfm/public/cm/cmr12.tfm
INPUT sbc-template.sty
INPUT sbc-template.sty
INPUT /usr/share/texlive/texmf-dist/tex/latex/geometry/geometry.sty
INPUT /usr/share/texlive/texmf-dist/tex/latex/geometry/geometry.sty
INPUT /usr/share/texlive/texmf-dist/tex/latex/graphics/keyval.sty
INPUT /usr/share/texlive/texmf-dist/tex/latex/graphics/keyval.sty
INPUT /usr/share/texlive/texmf-dist/tex/generic/oberdiek/ifpdf.sty
INPUT /usr/share/texlive/texmf-dist/tex/generic/oberdiek/ifpdf.sty
INPUT /usr/share/texlive/texmf-dist/tex/generic/oberdiek/ifvtex.sty
INPUT /usr/share/texlive/texmf-dist/tex/generic/oberdiek/ifvtex.sty
INPUT /usr/share/texlive/texmf-dist/tex/generic/ifxetex/ifxetex.sty
INPUT /usr/share/texlive/texmf-dist/tex/generic/ifxetex/ifxetex.sty
INPUT /usr/share/texlive/texmf-dist/tex/latex/caption/caption2.sty
INPUT /usr/share/texlive/texmf-dist/tex/latex/caption/caption2.sty
INPUT /usr/share/texlive/texmf-dist/tex/latex/caption/caption3.sty
INPUT /usr/share/texlive/texmf-dist/tex/latex/caption/caption3.sty
INPUT /usr/share/texlive/texmf-dist/tex/latex/psnfss/times.sty
INPUT /usr/share/texlive/texmf-dist/tex/latex/psnfss/times.sty
INPUT /usr/share/texlive/texmf-dist/tex/latex/titlesec/titlesec.sty
INPUT /usr/share/texlive/texmf-dist/tex/latex/titlesec/titlesec.sty
INPUT /usr/share/texlive/texmf-dist/tex/generic/babel/babel.sty
INPUT /usr/share/texlive/texmf-dist/tex/generic/babel/babel.sty
INPUT /usr/share/texlive/texmf-dist/tex/generic/babel-portuges/portuges.ldf
INPUT /usr/share/texlive/texmf-dist/tex/generic/babel-portuges/portuges.ldf
INPUT /usr/share/texlive/texmf-dist/tex/generic/babel/babel.def
INPUT /usr/share/texlive/texmf-dist/tex/latex/graphics/graphicx.sty
INPUT /usr/share/texlive/texmf-dist/tex/latex/graphics/graphicx.sty
INPUT /usr/share/texlive/texmf-dist/tex/latex/graphics/graphics.sty
INPUT /usr/share/texlive/texmf-dist/tex/latex/graphics/graphics.sty
INPUT /usr/share/texlive/texmf-dist/tex/latex/graphics/trig.sty
INPUT /usr/share/texlive/texmf-dist/tex/latex/graphics/trig.sty
INPUT /usr/share/texlive/texmf-dist/tex/latex/latexconfig/graphics.cfg
INPUT /usr/share/texlive/texmf-dist/tex/latex/latexconfig/graphics.cfg
INPUT /usr/share/texlive/texmf-dist/tex/latex/pdftex-def/pdftex.def
INPUT /usr/share/texlive/texmf-dist/tex/latex/pdftex-def/pdftex.def
INPUT /usr/share/texlive/texmf-dist/tex/generic/oberdiek/infwarerr.sty
INPUT /usr/share/texlive/texmf-dist/tex/generic/oberdiek/infwarerr.sty
INPUT /usr/share/texlive/texmf-dist/tex/generic/oberdiek/ltxcmds.sty
INPUT /usr/share/texlive/texmf-dist/tex/generic/oberdiek/ltxcmds.sty
INPUT /usr/share/texlive/texmf-dist/tex/latex/url/url.sty
INPUT /usr/share/texlive/texmf-dist/tex/latex/url/url.sty
INPUT /usr/share/texlive/texmf-dist/tex/latex/base/inputenc.sty
INPUT /usr/share/texlive/texmf-dist/tex/latex/base/inputenc.sty
INPUT /usr/share/texlive/texmf-dist/tex/latex/base/utf8.def
INPUT /usr/share/texlive/texmf-dist/tex/latex/base/utf8.def
INPUT /usr/share/texlive/texmf-dist/tex/latex/base/t1enc.dfu
INPUT /usr/share/texlive/texmf-dist/tex/latex/base/t1enc.dfu
INPUT /usr/share/texlive/texmf-dist/tex/latex/base/ot1enc.dfu
INPUT /usr/share/texlive/texmf-dist/tex/latex/base/ot1enc.dfu
INPUT /usr/share/texlive/texmf-dist/tex/latex/base/omsenc.dfu
INPUT /usr/share/texlive/texmf-dist/tex/latex/base/omsenc.dfu
INPUT /usr/share/texlive/texmf-dist/tex/latex/microtype/microtype.sty
INPUT /usr/share/texlive/texmf-dist/tex/latex/microtype/microtype.sty
INPUT /usr/share/texlive/texmf-dist/tex/latex/microtype/microtype-pdftex.def
INPUT /usr/share/texlive/texmf-dist/tex/latex/microtype/microtype-pdftex.def
INPUT /usr/share/texlive/texmf-dist/tex/latex/microtype/microtype.cfg
INPUT /usr/share/texlive/texmf-dist/tex/latex/microtype/microtype.cfg
INPUT /usr/share/texlive/texmf-dist/tex/latex/microtype/microtype.cfg
INPUT trabalho.aux
INPUT trabalho.aux
OUTPUT trabalho.aux
INPUT /usr/share/texlive/texmf-dist/tex/latex/psnfss/ot1ptm.fd
INPUT /usr/share/texlive/texmf-dist/tex/latex/psnfss/ot1ptm.fd
INPUT /usr/share/texlive/texmf-dist/fonts/tfm/adobe/times/ptmr7t.tfm
INPUT /usr/share/texlive/texmf-dist/tex/context/base/supp-pdf.mkii
INPUT /usr/share/texlive/texmf-dist/tex/context/base/supp-pdf.mkii
INPUT /usr/share/texlive/texmf-dist/tex/generic/oberdiek/pdftexcmds.sty
INPUT /usr/share/texlive/texmf-dist/tex/generic/oberdiek/pdftexcmds.sty
INPUT /usr/share/texlive/texmf-dist/tex/generic/oberdiek/ifluatex.sty
INPUT /usr/share/texlive/texmf-dist/tex/generic/oberdiek/ifluatex.sty
INPUT /usr/share/texlive/texmf-dist/tex/latex/oberdiek/epstopdf-base.sty
INPUT /usr/share/texlive/texmf-dist/tex/latex/oberdiek/epstopdf-base.sty
INPUT /usr/share/texlive/texmf-dist/tex/latex/oberdiek/grfext.sty
INPUT /usr/share/texlive/texmf-dist/tex/latex/oberdiek/grfext.sty
INPUT /usr/share/texlive/texmf-dist/tex/generic/oberdiek/kvdefinekeys.sty
INPUT /usr/share/texlive/texmf-dist/tex/generic/oberdiek/kvdefinekeys.sty
INPUT /usr/share/texlive/texmf-dist/tex/latex/oberdiek/kvoptions.sty
INPUT /usr/share/texlive/texmf-dist/tex/latex/oberdiek/kvoptions.sty
INPUT /usr/share/texlive/texmf-dist/tex/generic/oberdiek/kvsetkeys.sty
INPUT /usr/share/texlive/texmf-dist/tex/generic/oberdiek/kvsetkeys.sty
INPUT /usr/share/texlive/texmf-dist/tex/generic/oberdiek/etexcmds.sty
INPUT /usr/share/texlive/texmf-dist/tex/generic/oberdiek/etexcmds.sty
INPUT /usr/share/texlive/texmf-dist/tex/latex/latexconfig/epstopdf-sys.cfg
INPUT /usr/share/texlive/texmf-dist/tex/latex/latexconfig/epstopdf-sys.cfg
INPUT /usr/share/texlive/texmf-dist/tex/latex/microtype/mt-ptm.cfg
INPUT /usr/share/texlive/texmf-dist/tex/latex/microtype/mt-ptm.cfg
INPUT /usr/share/texlive/texmf-dist/fonts/tfm/adobe/times/ptmr7t.tfm
INPUT /usr/share/texlive/texmf-dist/fonts/tfm/adobe/times/ptmb7t.tfm
INPUT /usr/share/texlive/texmf-dist/fonts/tfm/adobe/times/ptmb7t.tfm
INPUT /usr/share/texlive/texmf-dist/tex/latex/microtype/mt-cmr.cfg
INPUT /usr/share/texlive/texmf-dist/tex/latex/microtype/mt-cmr.cfg
INPUT /usr/share/texlive/texmf-dist/fonts/tfm/public/cm/cmr8.tfm
INPUT /usr/share/texlive/texmf-dist/fonts/tfm/public/cm/cmr6.tfm
INPUT /usr/share/texlive/texmf-dist/fonts/tfm/public/cm/cmmi12.tfm
INPUT /usr/share/texlive/texmf-dist/fonts/tfm/public/cm/cmmi8.tfm
INPUT /usr/share/texlive/texmf-dist/fonts/tfm/public/cm/cmmi6.tfm
INPUT /usr/share/texlive/texmf-dist/fonts/tfm/public/cm/cmsy10.tfm
INPUT /usr/share/texlive/texmf-dist/fonts/tfm/public/cm/cmsy8.tfm
INPUT /usr/share/texlive/texmf-dist/fonts/tfm/public/cm/cmsy6.tfm
INPUT secoes/resumo.tex
INPUT secoes/resumo.tex
INPUT /usr/share/texlive/texmf-dist/fonts/tfm/adobe/times/ptmbi7t.tfm
INPUT /usr/share/texlive/texmf-dist/fonts/tfm/adobe/times/ptmri7t.tfm
INPUT secoes/intro.tex
INPUT secoes/intro.tex
INPUT /usr/share/texlive/texmf-dist/fonts/tfm/adobe/times/ptmr7t.tfm
INPUT /usr/share/texlive/texmf-dist/fonts/tfm/adobe/times/ptmb7t.tfm
INPUT figuras/middleware.png
INPUT ./figuras/middleware.png
OUTPUT trabalho.pdf
INPUT ./figuras/middleware.png
INPUT /usr/share/texlive/texmf-dist/tex/latex/psnfss/ot1phv.fd
INPUT /usr/share/texlive/texmf-dist/tex/latex/psnfss/ot1phv.fd
INPUT /usr/share/texlive/texmf-dist/fonts/tfm/adobe/helvetic/phvr7t.tfm
INPUT /usr/share/texlive/texmf-dist/fonts/tfm/adobe/helvetic/phvr7t.tfm
INPUT /usr/share/texlive/texmf-dist/fonts/tfm/adobe/helvetic/phvb7t.tfm
INPUT /usr/share/texlive/texmf-dist/fonts/vf/adobe/times/ptmb7t.vf
INPUT /usr/share/texlive/texmf-dist/fonts/tfm/adobe/times/ptmb8r.tfm
INPUT /var/lib/texmf/fonts/map/pdftex/updmap/pdftex.map
INPUT /usr/share/texlive/texmf-dist/fonts/vf/adobe/times/ptmb7t.vf
INPUT /usr/share/texlive/texmf-dist/fonts/tfm/adobe/times/ptmb8r.tfm
INPUT /usr/share/texlive/texmf-dist/fonts/vf/adobe/times/ptmr7t.vf
INPUT /usr/share/texlive/texmf-dist/fonts/tfm/adobe/times/ptmr8r.tfm
INPUT /usr/share/texlive/texmf-dist/fonts/vf/adobe/times/ptmbi7t.vf
INPUT /usr/share/texlive/texmf-dist/fonts/tfm/adobe/times/ptmbi8r.tfm
INPUT /usr/share/texlive/texmf-dist/fonts/vf/adobe/times/ptmri7t.vf
INPUT /usr/share/texlive/texmf-dist/fonts/tfm/adobe/times/ptmri8r.tfm
INPUT /usr/share/texlive/texmf-dist/fonts/vf/adobe/times/ptmb7t.vf
INPUT /usr/share/texlive/texmf-dist/fonts/tfm/adobe/times/ptmb8r.tfm
INPUT secoes/compartilhamento.tex
INPUT secoes/compartilhamento.tex
INPUT /usr/share/texlive/texmf-dist/fonts/vf/adobe/helvetic/phvb7t.vf
INPUT /usr/share/texlive/texmf-dist/fonts/tfm/adobe/helvetic/phvb8r.tfm
INPUT /usr/share/texlive/texmf-dist/tex/latex/psnfss/omsptm.fd
INPUT /usr/share/texlive/texmf-dist/tex/latex/psnfss/omsptm.fd
INPUT figuras/1.png
INPUT ./figuras/1.png
INPUT ./figuras/1.png
INPUT figuras/7.png
INPUT ./figuras/7.png
INPUT ./figuras/7.png
INPUT figuras/3.png
INPUT ./figuras/3.png
INPUT ./figuras/3.png
INPUT figuras/2.png
INPUT ./figuras/2.png
INPUT ./figuras/2.png
INPUT figuras/5.png
INPUT ./figuras/5.png
INPUT ./figuras/5.png
INPUT figuras/6.png
INPUT ./figuras/6.png
INPUT ./figuras/6.png
INPUT secoes/conclusao.tex
INPUT secoes/conclusao.tex
INPUT trabalho.bbl
INPUT trabalho.bbl
INPUT /usr/share/texlive/texmf-dist/fonts/tfm/adobe/times/ptmr7t.tfm
INPUT /usr/share/texlive/texmf-dist/fonts/vf/adobe/times/ptmr7t.vf
INPUT /usr/share/texlive/texmf-dist/fonts/tfm/adobe/times/ptmr8r.tfm
INPUT trabalho.aux
INPUT /usr/share/texlive/texmf-dist/fonts/enc/dvips/base/8r.enc
INPUT /usr/share/texlive/texmf-dist/fonts/type1/public/amsfonts/cm/cmr8.pfb
INPUT /usr/share/texlive/texmf-dist/fonts/type1/public/amsfonts/cm/cmsy10.pfb
INPUT /usr/share/texlive/texmf-dist/fonts/type1/urw/helvetic/uhvb8a.pfb
INPUT /usr/share/texlive/texmf-dist/fonts/type1/urw/times/utmb8a.pfb
INPUT /usr/share/texlive/texmf-dist/fonts/type1/urw/times/utmbi8a.pfb
INPUT /usr/share/texlive/texmf-dist/fonts/type1/urw/times/utmr8a.pfb
INPUT /usr/share/texlive/texmf-dist/fonts/type1/urw/times/utmri8a.pfb
