\relax 
\catcode `"\active 
\citation{tanembaum}
\citation{coulouris}
\citation{coulouris}
\citation{coulouris}
\select@language{portuges}
\@writefile{toc}{\select@language{portuges}}
\@writefile{lof}{\select@language{portuges}}
\@writefile{lot}{\select@language{portuges}}
\@writefile{toc}{\contentsline {section}{\numberline {1}Introdu\IeC {\c c}\IeC {\~a}o}{1}}
\newlabel{sec:introducao}{{1}{1}}
\citation{tannenbaum}
\citation{tannenbaum}
\@writefile{lof}{\contentsline {figure}{\numberline {1}{\ignorespaces Sistema Distribu\IeC {\'\i }do Organizado como Middleware \cite  {coulouris}.}}{2}}
\newlabel{middleware}{{1}{2}}
\@writefile{toc}{\contentsline {section}{\numberline {2}Compartilhamento de Recursos}{2}}
\newlabel{sec:compartilhamento}{{2}{2}}
\@writefile{toc}{\contentsline {subsection}{\numberline {2.1}Tipos de compartilhamento}{2}}
\@writefile{toc}{\contentsline {subsubsection}{\numberline {2.1.1}Hardware}{2}}
\citation{tannenbaum}
\citation{tannenbaum}
\citation{tannenbaum}
\citation{tannenbaum}
\citation{tannenbaum}
\@writefile{lof}{\contentsline {figure}{\numberline {2}{\ignorespaces Multiprocessadores baseados em barramento.}}{3}}
\newlabel{1}{{2}{3}}
\@writefile{lof}{\contentsline {figure}{\numberline {3}{\ignorespaces Multiprocessadores baseados em barramento com cache local.}}{3}}
\newlabel{7}{{3}{3}}
\citation{tannenbaum}
\citation{tanembaum}
\citation{hohpe}
\@writefile{lof}{\contentsline {figure}{\numberline {4}{\ignorespaces Multiprocessadores baseados em chaveamento.}}{4}}
\newlabel{3}{{4}{4}}
\@writefile{lof}{\contentsline {figure}{\numberline {5}{\ignorespaces Multiprocessadores baseados em chaveamento rede \IeC {\^o}mega.}}{4}}
\newlabel{2}{{5}{4}}
\@writefile{toc}{\contentsline {subsubsection}{\numberline {2.1.2}Software}{4}}
\citation{bezerra}
\citation{tanembaum}
\@writefile{lof}{\contentsline {figure}{\numberline {6}{\ignorespaces Multicomputadores baseados em barramento.}}{5}}
\newlabel{5}{{6}{5}}
\@writefile{lof}{\contentsline {figure}{\numberline {7}{\ignorespaces Multicomputadores baseados em chaveamento.}}{5}}
\newlabel{6}{{7}{5}}
\@writefile{toc}{\contentsline {subsubsection}{\numberline {2.1.3}Sistemas de arquivos distribu\IeC {\'\i }dos}{5}}
\@writefile{toc}{\contentsline {section}{\numberline {3}Conclus\IeC {\~a}o}{5}}
\bibstyle{sbc}
\bibdata{biblio/bibliografia}
\bibcite{bezerra}{Bezerra 2008}
\bibcite{coulouris}{Coulouris et~al. 2013}
\bibcite{hohpe}{Hohpe and Woolf 2004}
\bibcite{tanembaum}{Tanenbaum and Steen 2007}
\bibcite{tannenbaum}{Tanenbaum et~al. 2005}
\newlabel{sec:conclusao}{{3}{6}}
