\begin{thebibliography}{}

\bibitem[Bezerra 2008]{bezerra}
Bezerra, R.~M. (2008).
\newblock Mem{\'\o}ria compartilhada distribu{\'\i}da conceitos e algoritmos.

\bibitem[Coulouris et~al. 2013]{coulouris}
Coulouris, G., Dollimore, J., Kindberg, T., and Blair, G. (2013).
\newblock {\em Sistemas Distribu{\'\i}dos-: Conceitos e Projeto}.
\newblock Bookman Editora.

\bibitem[Hohpe and Woolf 2004]{hohpe}
Hohpe, G. and Woolf, B. (2004).
\newblock {\em Enterprise integration patterns: Designing, building, and
  deploying messaging solutions}.
\newblock Addison-Wesley Professional.

\bibitem[Tanenbaum and Steen 2007]{tanembaum}
Tanenbaum, A.~S. and Steen, M.~V. (2007).
\newblock Sistemas distribu{\'\i}dos princ{\'\i}pios e paradigmas.
  2{\textordfeminine} edi{\c{c}}{\~a}o.

\bibitem[Tanenbaum et~al. 2005]{tannenbaum}
Tanenbaum, A.~S., Thain, D., and Livny, M. (2005).
\newblock Distributed computing in practice: The condor experience.
\newblock {\em Concurrency and Computation: Practice and Experience},
  17(2-4):323--356.

\end{thebibliography}
